TBD
…
Starch treatments were initiated on day 9 to avoid starch granule counts being affected by \(alpha\)-amylase hydrolysis from inoculation saliva. An \(\alpha\)-amylase assay confirmed the absence of any \(\alpha\)-amylase activity in the system (bartholdyInvestigatingBiases2021?). Starch treatments replaced sucrose treatments, occurring twice per day for six minutes. The starch treatments involved transferring the substrata to a new plate containing a 0.25% (w/v) starch from potato (Roth 9441.1) solution, a 0.25% (w/v) starch from wheat (Sigma S5127) solution, and a 0.5% (w/v) mixture of equal concentrations (w/v) wheat and potato. All starch solutions were created in a 5% (w/v) sucrose solution. Before transferring biofilm samples to the starch treatments, the starch plates were agitated to keep the starches in suspension in the solutions, and during treatments, the rpm was increased to 60.

After 15 days, mineralisation was encouraged with a calcium phosphate monofluorophosphate urea (CPMU) solution containing 20 mmol/l CaCl2, 12 mmol/l NaH2PO4, 5 mmol/l Na2PO3F, 500 mmol/l Urea (Pearce and Sissons 1987; Sissons et al. 1991), and (0.04 g/l MgCl). The substrata were submerged in 1 ml/well CPMU five times daily, every two hours, for six minutes. During the mineralisation period, starch treatments were reduced to once per day after the five CPMU treatments. This cycle was repeated for 10 days until the end of the experiment on day 24 (see @ref(fig:protocol-fig) for an overview of protocol). A more detailed protocol is available at.

All laboratory work was conducted in sterile conditions under a laminar flow hood to prevent starch and bacterial contamination. Control samples were included to detect starch contamination.

Metagenomics

# A tibble: 36 × 2
   `#SampleID`  Env            
   <chr>        <chr>          
 1 LIB030.A0117 library control
 2 SYN001.A0101 saliva         
 3 SYN002.A0101 saliva         
 4 SYN003.A0101 saliva         
 5 SYN014.A0101 medium         
 6 SYN014.C0101 medium         
 7 SYN015.B0101 medium         
 8 SYN015.D0101 medium         
 9 SYN015.E0101 medium         
10 SYN015.F0101 medium         
# … with 26 more rows
…
